<?xml version="1.0" encoding="utf-8"?>
<!-- Generator: Adobe Illustrator 16.0.0, SVG Export Plug-In . SVG Version: 6.00 Build 0)  -->
<!DOCTYPE svg PUBLIC "-//W3C//DTD SVG 1.1//EN" "http://www.w3.org/Graphics/SVG/1.1/DTD/svg11.dtd">
<svg version="1.1" id="Layer_1" xmlns="http://www.w3.org/2000/svg" xmlns:xlink="http://www.w3.org/1999/xlink" x="0px"
     y="0px"
     width="122.88px" height="93.63px" viewBox="0 0 122.88 93.63" style="enable-background:new 0 0 122.88 93.63;"
     xml:space="preserve">
	    <defs>
    <filter id="filter" height="2" width="2">
      <feTurbulence baseFrequency="5" numOctaves="2" type="fractalNoise"/>
        <feDisplacementMap scale="4" xChannelSelector="R" in="SourceGraphic"/>

    </filter>
    </defs>
    <style type="text/css">
<![CDATA[
	.st0{fill-rule:evenodd;clip-rule:evenodd;filter:url(#filter);}
]]>
</style>
    <g>
	<path class="st0" d="M115.64,35.41l3,3c0.79,0.79,0.79,2.08,0,2.87l-2.42,2.42c0.67,1.24,1.17,2.59,1.5,4h3.13
		c1.12,0,2.03,0.91,2.03,2.03v4.24c0,1.12-0.91,2.03-2.03,2.03h-3.42c-0.42,1.38-1.02,2.69-1.77,3.88l2.22,2.21
		c0.79,0.79,0.79,2.08,0,2.87l-3,3c-0.79,0.79-2.08,0.79-2.87,0l-2.42-2.42c-1.24,0.67-2.58,1.18-4,1.5v3.13
		c0,1.12-0.91,2.03-2.03,2.03h-4.24c-1.12,0-2.03-0.91-2.03-2.03v-3.42c-1.38-0.42-2.69-1.02-3.88-1.77l-2.21,2.22
		c-0.79,0.79-2.08,0.79-2.87,0l-3-3c-0.79-0.79-0.79-2.08,0-2.87l2.42-2.42c-0.67-1.24-1.18-2.59-1.5-4h-3.13
		c-1.12,0-2.03-0.91-2.03-2.03v-4.24c0-1.12,0.91-2.03,2.03-2.03h3.42c0.42-1.38,1.02-2.69,1.77-3.88l-2.21-2.21
		c-0.79-0.79-0.79-2.08,0-2.87l3-3c0.79-0.79,2.08-0.79,2.87,0l2.42,2.42c1.24-0.67,2.59-1.18,4-1.5v-3.13
		c0-1.12,0.91-2.03,2.03-2.03h4.24c1.12,0,2.03,0.91,2.03,2.03v3.41c1.38,0.42,2.69,1.02,3.88,1.77l2.21-2.21
		C113.56,34.62,114.85,34.62,115.64,35.41L115.64,35.41L115.64,35.41z M3.5,70.32c2.93-3.08,4.12-3.47,8.06-4.19
		c0-21.21,0-41.9,0-63.1c-9.2,0.9-8.13,9.41-8.08,17.32c0.01,1.06,0.02,1.62,0.02,1.88V70.32L3.5,70.32z M29.17,26.62h16.4h1.27
		v1.27v51.22v1.27h-1.27h-16.4H27.9v-1.27V27.89v-1.27H29.17L29.17,26.62L29.17,26.62z M32.48,72.19h3.41v1.78h-3.41V72.19
		L32.48,72.19L32.48,72.19z M32.48,67.23h3.41v1.78h-3.41V67.23L32.48,67.23L32.48,67.23z M32.48,62.21h3.41v1.78h-3.41V62.21
		L32.48,62.21L32.48,62.21z M32.48,57.2h5.66v1.78h-5.66V57.2L32.48,57.2L32.48,57.2z M32.48,52.19h3.41v1.78h-3.41V52.19
		L32.48,52.19L32.48,52.19z M32.48,47.17h3.41v1.78h-3.41V47.17L32.48,47.17L32.48,47.17z M32.48,42.16h3.41v1.78h-3.41V42.16
		L32.48,42.16L32.48,42.16z M32.48,37.15h3.41v1.78h-3.41V37.15L32.48,37.15L32.48,37.15z M32.48,32.18h5.66v1.78h-5.66V32.18
		L32.48,32.18L32.48,32.18z M44.29,29.15H30.44v48.68h13.85V29.15L44.29,29.15L44.29,29.15z M70.49,38.22v41.8h-11.7v-41.8h-0.05
		l0.4-0.81l4.83-9.93l0.49-1.01l0.51,1l5.15,9.93l0.43,0.83H70.49L70.49,38.22L70.49,38.22z M60.55,37.08h8.15l-3.24-6.24h-1.87
		L60.55,37.08L60.55,37.08L60.55,37.08z M15.02,12.09h86.23c0.67,0,1.27,0.27,1.7,0.71c0.44,0.44,0.71,1.04,0.71,1.7v6.99h-4.47
		v-5.45H15.02v51.82h-0.01c0,0.72-0.52,1.34-1.25,1.45c-13.14,2.03-13.72,17.6-0.39,19.83h85.82v-6.54h4.47v8.6
		c0,0.66-0.27,1.26-0.71,1.7l-0.01,0.01l0,0c-0.44,0.44-1.04,0.71-1.7,0.71H13.27c-3.6,0-8.6-2.82-10.68-5.8
		c-2.04-2.9-2.77-6.63-2.56-10.97V22.23c0-1.51,0-1.67,0-1.87C-0.03,10.69-0.1,0.24,13.37,0.01C13.43,0,13.48,0,13.54,0
		c0.82,0,1.48,0.66,1.48,1.48V12.09L15.02,12.09L15.02,12.09z M101.98,42.97c4.61,0,8.34,3.74,8.34,8.34s-3.74,8.34-8.34,8.34
		c-4.61,0-8.34-3.74-8.34-8.34S97.37,42.97,101.98,42.97L101.98,42.97L101.98,42.97z"/>
</g>
</svg>
