<?xml version="1.0" encoding="utf-8"?>
<svg version="1.1" id="Layer_1" xmlns="http://www.w3.org/2000/svg" xmlns:xlink="http://www.w3.org/1999/xlink" x="0px"
     y="0px" viewBox="0 0 122.88 124.27" style="enable-background:new 0 0 122.88 124.27" xml:space="preserve">
      <defs>
    <filter id="filter" height="2" width="2">
      <feTurbulence baseFrequency="5" numOctaves="2" type="fractalNoise"/>
        <feDisplacementMap scale="4" xChannelSelector="R" in="SourceGraphic"/>

    </filter>
    </defs>
    <style type="text/css">.st0{fill-rule:evenodd;clip-rule:evenodd;filter:url(#filter);}</style>
    <g><path class="st0" d="M122.88,0H0v124.27h91.89l30.99-32.91V0L122.88,0z M114.89,8.58v77.33H86.18v31.01H8.1V8.58H114.89 L114.89,8.58z"/></g></svg>